{
  "type": "react-app",
  "publicPath": "/",
  "entry": {
    "index": "index.html"
  },
  "alias": {
    "components": "./components",
    "modules": "./modules",
    "utils": "./utils",
    "rc-trigger": "./components/patchedTrigger"
  },
  "babelUseBuiltIns": "entry",
  "dll": {
    "enable": true,
    "include": [
      "@ant-design/icons/lib/dist",
      "axios",
      "axios-mock-adapter",
      "echarts",
      "immutable",
      "immutability-helper",
      "localforage",
      "lodash",
      "moment",
      "msngr",
      "prop-types",
      "qs",
      "redux-saga",
      "redux-actions",
      "redux-immutable",
      "reselect"
    ]
  },
  "browserSupports": {
    "DEVELOPMENT": ["last 2 versions"],
    "PRODUCTION": ["> 1%", "IE 10"]
  },
  "htmlWebpackPlugin": {
    "inject": "auto",
    "chunksSortMode": "auto",
    "cache": true,
    "minify": {
      "collapseBooleanAttributes": true,
      "collapseWhitespace": true,
      "quoteCharacter": "'",
      "minifyCSS": true,
      "minifyJS": false,
      "removeComments": true,
      "removeEmptyAttributes": true,
      "removeOptionalTags": true,
      "removeRedundantAttributes": true,
      "removeScriptTypeAttributes": true,
      "removeStyleLinkTypeAttributes": true,
      "removeTagWhitespace": true,
      "useShortDoctype": true
    },
    "showErrors": true,
    "favicon": "src/favicon.ico"
  },
  "scriptExtHtmlWebpackPluginConfig": {
  },
  "historyApiFallback": true,
  "proxy": {
    "/ehuodiGateway": {
      "target": "http://managementtest.ehuodi.com",
      "changeOrigin": true
    },
    "/utmsCore": {
      "target": "http://10.50.13.106:8080"
    }
  },
  "enablePrepackPlugin": false
}
