<?xml version="1.0" encoding="UTF-8"?>
<svg width="145px" height="21px" viewBox="0 0 145 21" version="1.1" xmlns="http://www.w3.org/2000/svg" xmlns:xlink="http://www.w3.org/1999/xlink">
    <!-- Generator: Sketch 49 (51002) - http://www.bohemiancoding.com/sketch -->
    <title>Rectangle 5 Copy 5</title>
    <desc>Created with Sketch.</desc>
    <defs></defs>
    <g id="Page-1" stroke="none" stroke-width="1" fill="none" fill-rule="evenodd" stroke-opacity="0.34595788">
        <rect id="Rectangle-5-Copy-5" stroke="#00CCFF" stroke-width="0.5" fill="#012D3A" x="1" y="1" width="143" height="19" rx="9.5"></rect>
    </g>
</svg>